{
    "/js/app.js": "/js/app.js",
    "/css/own-styles.css": "/css/own-styles.css",
    "/css/app.css": "/css/app.css",
    "/css/loguin.css": "/css/loguin.css",
    "/css/global-mandatory.css": "/css/global-mandatory.css",
    "/css/global-styles.css": "/css/global-styles.css",
    "/css/theme-layout-styles.css": "/css/theme-layout-styles.css",
    "/js/core-plugins.js": "/js/core-plugins.js",
    "/js/layout-scripts.js": "/js/layout-scripts.js",
    "/js/loguin.js": "/js/loguin.js"
}